<svg width="220" height="78" viewBox="0 0 220 78" fill="none" xmlns="http://www.w3.org/2000/svg">
<path d="M28.753 57.5543C27.2522 57.5543 26.0356 56.3531 26.0356 54.8714V29.8892C26.0356 27.8712 27.6925 26.2354 29.7364 26.2354C31.196 26.2354 32.5193 27.0824 33.115 28.3981L42.0562 48.147C42.378 48.858 43.4016 48.8541 43.718 48.1407L52.4989 28.3373C53.0651 27.0604 54.3431 26.2354 55.7549 26.2354C57.718 26.2354 59.3093 27.8065 59.3093 29.7447V54.8714C59.3093 56.3531 58.0927 57.5543 56.592 57.5543C55.0912 57.5543 53.8746 56.3531 53.8746 54.8714V42.5295C53.8746 41.559 52.5309 41.2797 52.1346 42.1678L46.2827 55.2801C45.6659 56.6623 44.2805 57.5543 42.7508 57.5543C41.2317 57.5543 39.8538 56.6745 39.2308 55.3065L33.2076 42.0829C32.806 41.2012 31.4703 41.4841 31.4703 42.4508V54.8714C31.4703 56.3531 30.2537 57.5543 28.753 57.5543Z" fill="white"/>
<path fill-rule="evenodd" clip-rule="evenodd" d="M74.3277 34.5579C81.3965 34.5579 84.9309 38.1205 84.9309 45.2457C84.9309 46.8829 83.4965 48.0929 81.8384 48.0929H71.0873C70.0837 48.0929 69.215 48.9255 69.5636 49.8547C70.3392 51.9216 72.6519 52.955 76.5016 52.955C77.9334 52.955 79.3651 52.8738 80.7969 52.7114C82.2371 52.548 83.5556 53.6222 83.5556 55.0534C83.5556 56.1293 82.7958 57.0673 81.7165 57.2148C80.0595 57.4411 78.1734 57.5543 76.0579 57.5543C67.6138 57.5543 63.3918 53.6339 63.3918 45.7933C63.3918 38.303 67.0371 34.5579 74.3277 34.5579ZM70.2539 44.063H78.5566C79.5602 44.063 80.4143 43.2357 80.0825 42.3006C79.4754 40.5898 77.8301 39.1133 74.3277 39.1133C71.5408 39.1133 69.8972 40.442 69.3969 43.0994C69.3 43.6141 69.7237 44.063 70.2539 44.063Z" fill="white"/>
<path fill-rule="evenodd" clip-rule="evenodd" d="M106.55 56.9213C108.584 56.5604 109.975 54.7512 109.975 52.7109V29.1373C109.975 27.5346 108.659 26.2354 107.036 26.2354C105.412 26.2354 104.097 27.5346 104.097 29.1373V34.265C104.097 34.9161 103.414 35.3522 102.788 35.1458C101.6 34.7539 100.432 34.5579 99.2829 34.5579C91.9184 34.5579 88.2361 38.2373 88.2361 45.5961C88.2361 53.5682 91.9997 57.5543 99.5269 57.5543C101.831 57.5543 104.172 57.3433 106.55 56.9213ZM101.853 39.6246C103.34 39.9716 104.097 41.467 104.097 42.9757V50.0398C104.097 51.2144 103.327 52.2794 102.153 52.4648C101.377 52.5872 100.576 52.6484 99.7488 52.6484C95.9482 52.6484 94.0479 50.2465 94.0479 45.4428C94.0479 41.3984 95.8742 39.3762 99.5269 39.3762C100.367 39.3762 101.143 39.459 101.853 39.6246Z" fill="white"/>
<path d="M118.673 34.5579C120.178 34.5579 121.399 35.7628 121.399 37.2491V54.863C121.399 56.3494 120.178 57.5543 118.673 57.5543H118.246C116.741 57.5543 115.52 56.3494 115.52 54.863V37.2491C115.52 35.7628 116.741 34.5579 118.246 34.5579H118.673Z" fill="white"/>
<path fill-rule="evenodd" clip-rule="evenodd" d="M118.836 10.3947C114.058 10.3947 110.185 14.2177 110.185 18.9337C110.185 23.6496 114.058 27.4727 118.836 27.4727C123.613 27.4727 127.487 23.6496 127.487 18.9337C127.487 14.2177 123.613 10.3947 118.836 10.3947ZM109.167 18.9337C109.167 13.6629 113.496 9.39008 118.836 9.39008C124.175 9.39008 128.504 13.6629 128.504 18.9337C128.504 24.2044 124.175 28.4773 118.836 28.4773C113.496 28.4773 109.167 24.2044 109.167 18.9337ZM124.942 18.9337C124.942 22.2626 122.208 24.9612 118.836 24.9612C115.463 24.9612 112.729 22.2626 112.729 18.9337C112.729 15.6048 115.463 12.9061 118.836 12.9061C122.208 12.9061 124.942 15.6048 124.942 18.9337ZM126.978 30.8092C126.978 28.7689 128.368 26.9597 130.402 26.5988C132.781 26.1768 135.122 25.9658 137.426 25.9658C144.953 25.9658 148.716 29.9519 148.716 37.924C148.716 43.0936 146.899 46.4473 143.265 47.9853L147.842 52.5029C148.906 53.5539 148.907 55.2577 147.842 56.3084L147.54 56.6063C146.476 57.657 144.75 57.6567 143.685 56.6058L136.03 49.0496C135.947 48.9676 135.87 48.8817 135.8 48.7924C135.259 48.6949 134.714 48.5555 134.164 48.3743C133.539 48.1679 132.856 48.604 132.856 49.2552V54.3828C132.856 55.9855 131.54 57.2848 129.917 57.2848C128.294 57.2848 126.978 55.9855 126.978 54.3828L126.978 30.8092ZM132.856 40.5444C132.856 42.0531 133.613 43.5486 135.1 43.8955C135.81 44.0611 136.585 44.1439 137.426 44.1439C141.078 44.1439 142.905 42.1217 142.905 38.0773C142.905 33.2736 141.004 30.8717 137.204 30.8717C136.377 30.8717 135.576 30.9329 134.8 31.0553C133.625 31.2408 132.856 32.3057 132.856 33.4803L132.856 40.5444ZM194.241 55.1146C194.241 56.158 193.513 57.0738 192.469 57.2357C191.099 57.448 189.693 57.5542 188.252 57.5542C179.97 57.5542 175.83 53.5754 175.83 45.618C175.83 38.2445 179.97 34.5578 188.252 34.5578C189.693 34.5578 191.099 34.6639 192.469 34.8763C193.513 35.0382 194.241 35.9539 194.241 36.9974C194.241 38.4384 192.882 39.4966 191.433 39.3237C190.502 39.2126 189.589 39.1571 188.696 39.1571C184.037 39.1571 181.708 41.3107 181.708 45.618C181.708 50.5093 184.037 52.9549 188.696 52.9549C189.589 52.9549 190.502 52.8993 191.433 52.7882C192.882 52.6154 194.241 53.6736 194.241 55.1146ZM162.34 34.6804C169.408 34.6804 172.943 38.243 172.943 45.3683C172.943 47.0054 171.508 48.2154 169.85 48.2154H159.099C158.096 48.2154 157.227 49.048 157.576 49.9772C158.351 52.0441 160.664 53.0775 164.513 53.0775C165.945 53.0775 167.377 52.9963 168.809 52.8339C170.249 52.6705 171.568 53.7447 171.568 55.176C171.568 56.2518 170.808 57.1899 169.728 57.3373C168.071 57.5637 166.185 57.6768 164.07 57.6768C155.626 57.6768 151.404 53.7565 151.404 45.9158C151.404 38.4255 155.049 34.6804 162.34 34.6804ZM158.266 44.1856H166.568C167.572 44.1856 168.426 43.3582 168.094 42.4231C167.487 40.7124 165.842 39.2359 162.34 39.2359C159.553 39.2359 157.909 40.5646 157.409 43.2219C157.312 43.7366 157.736 44.1856 158.266 44.1856Z" fill="white"/>
</svg>
